Project 1: Exploratory Data Analysis
…
fulldata <- netflixviews %>% full_join(weather, by = c(Date = "Date"))

fulldata <- fulldata %>% filter(str_detect(Title, "Trailer", 
    negate = TRUE)) %>% filter(str_detect(Title, "hook", negate = TRUE)) %>% 
    filter(str_detect(Title, "Clip", negate = TRUE)) %>% filter(str_detect(Title, 
    "clip", negate = TRUE)) %>% filter(str_detect(Title, "HIDDEN", 
    negate = TRUE)) %>% filter(str_detect(Title, "Clip", negate = TRUE)) %>% 
    filter(str_detect(Title, "preview", negate = TRUE)) %>% separate(Title, 
    c("Show", "Season", "Episode"), ":") %>% select(-Season, 
    -Episode)

fulldata

## # A tibble: 7,625 x 11
##    `Profile Name` Date  Time  Duration Show  Country Location `Maximum Temper…
##    <chr>          <chr> <chr> <time>   <chr> <chr>   <chr>               <dbl>
##  1 Rebeca         2020… 04:4… 23'58"   The … US (Un… Dallas                 87
##  2 Rebeca         2020… 04:2… 18'22"   The … US (Un… Dallas                 87
##  3 Rebeca         2020… 03:3… 25'21"   The … US (Un… Dallas                 87
##  4 Rebeca         2020… 03:1… 15'01"   The … US (Un… Dallas                 87
##  5 Rebeca         2020… 16:3… 24'47"   The … US (Un… Dallas                 87
##  6 Rebeca         2020… 15:0… 02'38"   The … US (Un… Dallas                 87
##  7 Rebeca         2020… 14:4… 25'02"   The … US (Un… Dallas                 87
##  8 Rebeca         2020… 05:3… 16'16"   The … US (Un… Dallas                 87
##  9 Rebeca         2020… 04:5… 40'36"   The … US (Un… Dallas                 87
## 10 Rebeca         2020… 04:3… 18'14"   The … US (Un… Dallas                 87
## # … with 7,615 more rows, and 3 more variables: `Minimum Temperature` <dbl>,
## #   `Average Temperature` <dbl>, Precipitation <dbl>
…
We have watched more hours of Netflix between 7 am and 8 pm.

7. I wanted to see what shows I have personally spent most of my hours on. I start a lot of new shows and I know I have watched The Office a couple of times.

fulldata %>% filter(`Profile Name` == "Rebeca") %>% group_by(Show) %>% 
    summarize(total_secs = sum(Duration)) %>% mutate(total_hours = total_secs/3600) %>% 
    select(-total_secs) %>% separate(total_hours, c("total_hours"), 
    " ") %>% mutate(total_hours = as.numeric(as.character(total_hours))) %>% 
    arrange(desc(total_hours))

## # A tibble: 270 x 2
##    Show                 total_hours
##    <chr>                      <dbl>
##  1 The Office (U.S.)          226. 
##  2 Supernatural               225. 
##  3 Criminal Minds             201. 
##  4 Gilmore Girls              124. 
##  5 Parks and Recreation        94.0
##  6 Friends                     93.6
##  7 Dexter                      83.8
##  8 That '70s Show              81.8
##  9 The Vampire Diaries         69.8
## 10 New Girl                    55.0
## # … with 260 more rows
…
fulldata1 <- fulldata %>% separate(Time, c("Hour", "Minute", 
    "Second"), ":") %>% mutate(Hour = as.numeric(as.character(Hour))) %>% 
    mutate(Minute = as.numeric(as.character(Minute))) %>% mutate(Second = as.numeric(as.character(Second))) %>% 
    mutate(Duration = Hour + Minute/60 + Second/3600) %>% select(-Hour, 
    -Minute, -Second)

fulldata1 %>% group_by(Show) %>% summarize_if(is.numeric, list(min = min, 
    max = max, mean = mean, sd = sd, median = median, var = var), 
    na.rm = T) %>% pivot_longer(-1) %>% separate(name, into = c("name", 
    "variable"), sep = "_") %>% pivot_wider(names_from = "name", 
    values_from = "value") %>% unnest(`Maximum Temperature`, 
    `Minimum Temperature`, `Average Temperature`, Precipitation) %>% 
    na.omit()

## # A tibble: 2,186 x 7
##    Show  variable Duration `Maximum Temper… `Minimum Temper… `Average Temper…
##    <chr> <chr>       <dbl>            <dbl>            <dbl>            <dbl>
##  1 'Til… min        2.11              96.5             80.2             88.8 
##  2 'Til… max        2.34              96.5             80.2             88.8 
##  3 'Til… mean       2.23              96.5             80.2             88.8 
##  4 'Til… sd         0.161              0                0                0   
##  5 'Til… median     2.23              96.5             80.2             88.8 
##  6 'Til… var        0.0259             0                0                0   
##  7 13 G… min        0.655             63               42.2             51.6 
##  8 13 G… max        2.67              65               44.1             55.1 
##  9 13 G… mean       1.66              64               43.2             53.4 
## 10 13 G… sd         1.43               1.41             1.34             2.47
## # … with 2,176 more rows, and 1 more variable: Precipitation <dbl>
…
fulldata1 %>% group_by(`Profile Name`, Show) %>% summarize(n(), 
    Mean_Duration = mean(Duration), Days_Spent = n_distinct(Date)) %>% 
    arrange(desc(Days_Spent))

## # A tibble: 479 x 5
## # Groups:   Profile Name [3]
##    `Profile Name` Show                 `n()` Mean_Duration Days_Spent
##    <chr>          <chr>                <int>         <dbl>      <int>
##  1 Rebeca         Supernatural           688          13.3        124
##  2 Rebeca         The Office (U.S.)      923          12.1        117
##  3 Rebeca         Criminal Minds         544          12.2         61
##  4 Rebeca         New Girl               284          13.7         41
##  5 Rebeca         Parks and Recreation   377          13.2         41
##  6 Rebeca         Friends                379          13.0         40
##  7 Rebeca         The Vampire Diaries    241          10.7         39
##  8 Rebeca         Gilmore Girls          350          12.1         35
##  9 Rebeca         Dexter                 233          12.0         33
## 10 Jr.            The Office (U.S.)      314          13.1         31
## # … with 469 more rows
…
Visualizing

# Correlation Heatmap
cormat <- fulldata1 %>% select_if(is.numeric) %>% cor(use = "pair")
tidycor <- cormat %>% as.data.frame %>% rownames_to_column("var1") %>% 
    pivot_longer(-1, names_to = "var2", values_to = "correlation")
tidycor

## # A tibble: 25 x 3
##    var1                var2                correlation
##    <chr>               <chr>                     <dbl>
##  1 Duration            Duration              1        
##  2 Duration            Maximum Temperature   0.00106  
##  3 Duration            Minimum Temperature  -0.00544  
##  4 Duration            Average Temperature  -0.0000266
##  5 Duration            Precipitation         0.00700  
##  6 Maximum Temperature Duration              0.00106  
##  7 Maximum Temperature Maximum Temperature   1        
##  8 Maximum Temperature Minimum Temperature   0.919    
##  9 Maximum Temperature Average Temperature   0.980    
## 10 Maximum Temperature Precipitation        -0.0370   
## # … with 15 more rows
…
